Division,WeightClassKg,Place,Name,Team,BodyweightKg,Best3SquatKg,Best3BenchKg,Best3DeadliftKg,TotalKg,Equipment,Event,Sex,BirthDate
Boys,51.71,1,Justin Moss,Burleson,51.62,172.37,99.79,170.1,442.25,Single-ply,SBD,M,
Boys,51.71,2,Greyson Boedeker,Joshua,41.73,52.16,29.48,61.23,142.88,Single-ply,SBD,M,
Boys,51.71,DQ,Namid Martinez,Alvarado,50.8,,,,,Single-ply,SBD,M,
Boys,55.79,1,Ryan McCullough,Burleson,55.16,154.22,95.25,170.1,419.57,Single-ply,SBD,M,
Boys,55.79,2,Grayson Thomas,Burleson,55.34,163.29,95.25,154.22,412.77,Single-ply,SBD,M,
Boys,55.79,3,Aidan Tran,Crowley,55.79,120.2,83.91,156.49,360.61,Single-ply,SBD,M,
Boys,59.87,1,Matthew Smith,Burleson,59.78,179.17,106.59,183.7,469.47,Single-ply,SBD,M,
Boys,59.87,2,Tyler Jessup,Alvarado,59.87,163.29,102.06,163.29,428.64,Single-ply,SBD,M,
Boys,59.87,3,Jayden Bridgewater,Alvarado,59.42,149.69,113.4,127.01,390.09,Single-ply,SBD,M,
Boys,59.87,4,Nicholas Rizo,Crowley,59.87,124.74,83.91,154.22,362.87,Single-ply,SBD,M,
Boys,67.13,1,Christian Negrete,Burleson,66.86,226.8,120.2,197.31,544.31,Single-ply,SBD,M,
Boys,67.13,2,Ace Hutchins,Joshua,66.86,167.83,90.72,167.83,426.38,Single-ply,SBD,M,
Boys,67.13,3,Kevin Brown,Alvarado,65.77,142.88,86.18,163.29,392.36,Single-ply,SBD,M,
Boys,67.13,4,Spence Bivens,Joshua,62.14,117.93,61.23,133.81,312.98,Single-ply,SBD,M,
Boys,67.13,5,Garret Schneck,Joshua,62.6,92.99,65.77,117.93,276.69,Single-ply,SBD,M,
Boys,67.13,DQ,Michael Stephens,Alvarado,66.86,,,,,Single-ply,SBD,M,
Boys,74.84,1,Alex Ansay,Alvarado,68.95,210.92,129.27,210.92,551.11,Single-ply,SBD,M,
Boys,74.84,2,Braylen Galbreath,Joshua,74.75,192.78,127.01,215.46,535.24,Single-ply,SBD,M,
Boys,74.84,3,Jabari Smith,Burleson,72.35,222.26,106.59,197.31,526.17,Single-ply,SBD,M,
Boys,74.84,4,Nathan Smith,Joshua,71.67,165.56,95.25,158.76,419.57,Single-ply,SBD,M,
Boys,74.84,5,Will Thompson,Joshua,68.58,172.37,106.59,136.08,415.04,Single-ply,SBD,M,
Boys,74.84,6,Preston Savage,Joshua,72.57,149.69,88.45,149.69,387.82,Single-ply,SBD,M,
Boys,74.84,7,Javier Huerta,Crowley,68.95,142.88,86.18,156.49,385.55,Single-ply,SBD,M,
Boys,74.84,8,Trentyn Madison,Crowley,73.94,124.74,83.91,154.22,362.87,Single-ply,SBD,M,
Boys,74.84,9,Enrique Gonzales,Crowley,71.67,124.74,72.57,154.22,351.53,Single-ply,SBD,M,
Boys,74.84,10,Ray Do,Crowley,72.57,115.67,81.65,147.42,344.73,Single-ply,SBD,M,
Boys,74.84,DQ,Johnathan Cranford,Burleson,73.07,,,,,Single-ply,SBD,M,
Boys,82.1,1,Jacob Simpkins,Joshua,80.74,242.67,165.56,210.92,619.15,Single-ply,SBD,M,
Boys,82.1,2,Ethan Hernandez,Burleson,81.42,222.26,136.08,231.33,589.67,Single-ply,SBD,M,
Boys,82.1,3,Andrew Freese,Burleson,81.47,229.06,131.54,224.53,585.13,Single-ply,SBD,M,
Boys,82.1,4,Sam Jackson,Joshua,76.2,174.63,97.52,183.7,455.86,Single-ply,SBD,M,
Boys,82.1,5,Lex Newton,Alvarado,81.47,142.88,97.52,127.01,367.41,Single-ply,SBD,M,
Boys,89.81,1,Christian Blake,Crowley,86.64,204.12,111.13,215.46,530.7,Single-ply,SBD,M,
Boys,89.81,2,River Hagin,Burleson,84.69,192.78,124.74,190.51,508.02,Single-ply,SBD,M,
Boys,89.81,3,Calogero Moore,Alvarado,89.36,181.44,142.88,183.7,508.02,Single-ply,SBD,M,
Boys,89.81,4,Daniel Terry,Joshua,87.63,158.76,97.52,167.83,424.11,Single-ply,SBD,M,
Boys,89.81,5,Cayman Spence,Joshua,83.46,176.9,72.57,167.83,417.3,Single-ply,SBD,M,
Boys,89.81,6,Trevor Meyer,Joshua,89.4,106.59,102.06,120.2,328.85,Single-ply,SBD,M,
Boys,99.79,1,Joel Smith,Burleson,99.11,217.72,149.69,204.12,571.53,Single-ply,SBD,M,
Boys,99.79,2,Kalun Blair,Burleson,90.72,181.44,117.93,188.24,487.61,Single-ply,SBD,M,
Boys,99.79,3,Benji Schneck,Joshua,97.52,138.35,83.91,138.35,360.61,Single-ply,SBD,M,
Boys,99.79,DQ,Jayden Mhoon,Crowley,98.88,,,,,Single-ply,SBD,M,
Boys,109.77,1,Cooper Zelazny,Joshua,109.5,281.23,165.56,226.8,673.58,Single-ply,SBD,M,
Boys,109.77,2,Izaiah Perry,Burleson,108.64,267.62,172.37,231.33,671.32,Single-ply,SBD,M,
Boys,109.77,3,Evan Warren,Crowley,107.05,249.48,142.88,215.46,607.81,Single-ply,SBD,M,
Boys,109.77,4,Dc Thompson,Crowley,103.87,183.7,151.95,217.72,553.38,Single-ply,SBD,M,
Boys,109.77,5,Cam Martin,Burleson,105.01,181.44,131.54,188.24,501.22,Single-ply,SBD,M,
Boys,109.77,DQ,Priest Ashe,Crowley,103.42,,,,,Single-ply,SBD,M,
Boys,124.74,1,Bradley Gregory,Joshua,122.92,281.23,170.1,226.8,678.12,Single-ply,SBD,M,
Boys,124.74,2,Josh Johnson,Joshua,123.38,249.48,163.29,231.33,644.1,Single-ply,SBD,M,
Boys,124.74,3,Collin Adams,Alvarado,120.93,217.72,151.95,181.44,551.11,Single-ply,SBD,M,
Boys,124.74,4,Jovanni Aguilar,Alvarado,119.29,201.85,127.01,190.51,519.36,Single-ply,SBD,M,
Boys,124.74,5,Hayden Nelson,Joshua,115.67,190.51,104.33,176.9,471.74,Single-ply,SBD,M,
Boys,124.74,6,Dylland Burrell,Joshua,120.2,183.7,102.06,167.83,453.59,Single-ply,SBD,M,
Boys,124.74,DQ,Donald Thompson,Crowley,124.74,,,,,Single-ply,SBD,M,
Boys,139.71,1,Lance Caylor,Joshua,134.08,204.12,108.86,167.83,480.81,Single-ply,SBD,M,
Boys,139.71,DQ,Liam Moore,Alvarado,131.54,,,,,Single-ply,SBD,M,
Boys,139.71+,1,Colin Preston,Crowley,156.49,111.13,79.38,151.95,342.46,Single-ply,SBD,M,
Boys,139.71+,DQ,Niaro Langrus,Joshua,143.79,,,,,Single-ply,SBD,M,
Boys,,NS,Gio Warner,Crowley,,,,,,Single-ply,SBD,M,
Boys,,NS,Letron King,Crowley,,,,,,Single-ply,SBD,M,
Boys,,NS,Mekhi Ford,Crowley,,,,,,Single-ply,SBD,M,
Boys,,NS,Oscar Martinez,Alvarado,,,,,,Single-ply,SBD,M,
