Place,Name,State,WeightClassKg,BodyweightKg,BirthDate,Age,Squat1Kg,Squat2Kg,Squat3Kg,Best3SquatKg,Bench1Kg,Bench2Kg,Bench3Kg,Best3BenchKg,Deadlift1Kg,Deadlift2Kg,Deadlift3Kg,Best3DeadliftKg,TotalKg,Deadlift4Kg,Event,Equipment,Sex,Division
1,Jennifer Nguyen,CA,56,56,,23,112.5,122.5,127.5,127.5,57.5,65,-70,65,125,132.5,140,140,332.5,,SBD,Raw,F,Juniors 20-23
1,Kristanne Ibus,HI,67.5,66.2,,19,102.5,-110,-117.5,102.5,57.5,65,-70,65,147.5,160,170,170,337.5,,SBD,Raw,F,Juniors 18-19
1,Emily Fiduccia,CA,75,73,,21,67.5,77.5,85,85,40,47.5,-50,47.5,75,85,90,90,222.5,,SBD,Raw,F,Juniors 20-23
1,Suzanne Ngo,CA,52,51.1,,31,100,-107.5,-112.5,100,50,55,57.5,57.5,110,120,130,130,287.5,,SBD,Raw,F,Open
1,Ren Yamashita,HI,56,55.8,,32,107.5,117.5,122.5,122.5,67.5,72.5,75,75,145,152.5,160,160,357.5,,SBD,Raw,F,Open
2,Nadine Lee,CA,56,54.2,,33,90,97.5,107.5,107.5,45,55,-65,55,105,120,132.5,132.5,295,,SBD,Raw,F,Open
1,Shaina Renee Manlangit,CA,60,57.7,,26,-85,-85,85,85,-35,35,-42.5,35,82.5,95,102.5,102.5,222.5,,SBD,Raw,F,Open
1,Kristanne Ibus,HI,67.5,66.2,,19,102.5,-110,-117.5,102.5,57.5,65,-70,65,147.5,160,170,170,337.5,,SBD,Raw,F,Open
2,Tiffany Ngo,CA,67.5,65.8,,32,107.5,115,122.5,122.5,62.5,70,-75,70,127.5,135,142.5,142.5,335,,SBD,Raw,F,Open
3,Celyn Matienzo,CA,67.5,66.2,,26,100,105,-110,105,57.5,60,62.5,62.5,110,115,-120,115,282.5,,SBD,Raw,F,Open
1,Alexis Sulaeman,CA,75,74,,32,-145,145,-152.5,145,80,-85,85,85,-180,187.5,-192.5,187.5,417.5,,SBD,Raw,F,Open
1,Melanie Nguyen,CA,82.5,78.5,,28,140,147.5,-157.5,147.5,75,80,85,85,145,155,167.5,167.5,400,,SBD,Raw,F,Open
2,Luvina Ruiz,CA,82.5,77.9,,32,142.5,150,155,155,57.5,62.5,-65,62.5,142.5,150,155,155,372.5,,SBD,Raw,F,Open
3,Melody Rios,CA,82.5,76,,30,130,-135,-137.5,130,65,70,-75,70,130,137.5,-142.5,137.5,337.5,,SBD,Raw,F,Open
1,Ana Benitez,CA,90,87.5,,47,142.5,150,-157.5,150,72.5,77.5,-82.5,77.5,145,152.5,160,160,387.5,,SBD,Raw,F,Open
2,Kaitlyn Kelly,CA,90,89.1,,28,130,140,145,145,65,70,-72.5,70,137.5,147.5,157.5,157.5,372.5,,SBD,Raw,F,Open
3,Veronica Plaza,CA,90,89.9,,38,112.5,120,-125,120,65,70,-75,70,132.5,-142.5,142.5,142.5,332.5,,SBD,Raw,F,Open
4,Ashley Truex,CA,90,88.3,,28,102.5,107.5,112.5,112.5,50,-52.5,-52.5,50,127.5,137.5,142.5,142.5,305,,SBD,Raw,F,Open
DQ,Samantha Manassero,CA,90,89.8,,35,-122.5,-122.5,-122.5,,60,65,67.5,67.5,155,162.5,170,170,,,SBD,Raw,F,Open
1,Crystal Bocardo-Palomino,CA,90+,132.9,,30,150,157.5,-160,157.5,65,-70,-70,65,142.5,150,-157.5,150,372.5,,SBD,Raw,F,Open
1,Veronica Plaza,CA,90,89.9,,38,112.5,120,-125,120,65,70,-75,70,132.5,-142.5,142.5,142.5,332.5,,SBD,Raw,F,Submasters 35-39
DQ,Samantha Manassero,CA,90,89.8,,35,-122.5,-122.5,-122.5,,60,65,67.5,67.5,155,162.5,170,170,,,SBD,Raw,F,Submasters 35-39
1,Pamela Kalehuawehe,HI,60,57.7,,56,100,-105,105,105,65,70,-72.5,70,160,167.5,177.5,177.5,352.5,,SBD,Raw,F,Masters 55-59
1,Rosanna Wait,CA,67.5,65.7,,52,45,60,75,75,35,-42.5,42.5,42.5,65,80,90,90,207.5,,SBD,Raw,F,Masters 50-54
1,Ana Benitez,CA,90,87.5,,47,142.5,150,-157.5,150,72.5,77.5,-82.5,77.5,145,152.5,160,160,387.5,,SBD,Raw,F,Masters 45-49
1,Elizabeth Villa,CA,90+,131.3,,41,137.5,145,-150,145,77.5,82.5,-87.5,82.5,147.5,152.5,-162.5,152.5,380,,SBD,Raw,F,Masters 40-44
1,David Reisman,CA,60,57.3,,17,115,122.5,130,130,72.5,-75,75,75,147.5,152.5,157.5,157.5,362.5,,SBD,Raw,M,Juniors 16-17
1,Tyler Le,CA,67.5,66.7,,21,175,182.5,-190,182.5,85,-92.5,97.5,97.5,185,192.5,202.5,202.5,482.5,,SBD,Raw,M,Juniors 20-23
1,Brian Menda,CA,75,74.9,,21,187.5,200,210,210,127.5,-135,-135,127.5,220,240,255,255,592.5,,SBD,Raw,M,Juniors 20-23
2,Baron Nguyen,CA,75,73.5,,21,157.5,-165,-182.5,157.5,102.5,110,-115,110,200,-212.5,-212.5,200,467.5,,SBD,Raw,M,Juniors 20-23
3,Joshua Sinocruz,CA,75,74.1,,22,145,155,-160,155,110,120,-125,120,-182.5,182.5,-192.5,182.5,457.5,,SBD,Raw,M,Juniors 20-23
1,Reilly Duncan,CA,82.5,77,,18,-160,160,177.5,177.5,125,132.5,-140,132.5,215,-225,235,235,545,,SBD,Raw,M,Juniors 18-19
2,Kennith Tran,CA,82.5,81.1,,19,200,-212.5,-215,200,-110,112.5,117.5,117.5,200,215,227.5,227.5,545,,SBD,Raw,M,Juniors 18-19
1,Michael Kabbout,CA,82.5,81.5,,23,150,157.5,165,165,85,90,95,95,-190,195,-207.5,195,455,,SBD,Raw,M,Juniors 20-23
1,Ahmed Dregia,CA,90,90,,23,227.5,235,,235,-150,150,160,160,-285,300,-317.5,300,695,,SBD,Raw,M,Juniors 20-23
1,Jack Hunter,AZ,125,123.7,,21,210,220,-227.5,220,-165,165,170,170,227.5,240,-252.5,240,630,,SBD,Raw,M,Juniors 20-23
1,John Santiago,CA,67.5,66.2,,25,142.5,150,155,155,92.5,-97.5,97.5,97.5,-182.5,190,-200,190,442.5,,SBD,Raw,M,Open
2,Kevin Dong,CA,67.5,65.5,,32,-127.5,127.5,137.5,137.5,80,85,-92.5,85,160,170,182.5,182.5,405,,SBD,Raw,M,Open
1,Rasheem Keith,HI,75,73.5,,26,205,217.5,227.5,227.5,132.5,142.5,150,150,245,260,272.5,272.5,650,,SBD,Raw,M,Open
2,Andrew Torrico,CA,75,74.3,,27,192.5,202.5,210,210,105,115,122.5,122.5,255,270,282.5,282.5,615,,SBD,Raw,M,Open
3,Kwadwo Bonsu,CA,75,74.9,,26,145,-155,-155,145,100,112.5,-120,112.5,-185,185,200,200,457.5,,SBD,Raw,M,Open
1,Nathan Smith #15,CA,82.5,80.7,,29,185,195,200,200,150,160,165,165,230,250,-257.5,250,615,,SBD,Raw,M,Open
2,Miguel Valtierra,CA,82.5,81.4,,24,-200,200,212.5,212.5,142.5,-150,150,150,-240,-247.5,247.5,247.5,610,,SBD,Raw,M,Open
3,James Robinson,CA,82.5,81.7,,24,175,185,-195,185,125,130,142.5,142.5,225,240,255,255,582.5,,SBD,Raw,M,Open
4,Jabril Ward,CA,82.5,81.5,,29,180,195,202.5,202.5,120,130,-137.5,130,220,235,245,245,577.5,,SBD,Raw,M,Open
5,Mikael Zenteno,CA,82.5,81.1,,26,180,-190,190,190,110,117.5,-120,117.5,200,210,215,215,522.5,,SBD,Raw,M,Open
6,Michael Kabbout,CA,82.5,81.5,,23,150,157.5,165,165,85,90,95,95,-190,195,-207.5,195,455,,SBD,Raw,M,Open
1,Shane Frankhouse,CA,90,89.9,,31,205,220,235,235,160,172.5,177.5,177.5,277.5,295,-307.5,295,707.5,,SBD,Raw,M,Open
2,Ahmed Dregia,CA,90,90,,23,227.5,235,,235,-150,150,160,160,-285,300,-317.5,300,695,,SBD,Raw,M,Open
3,Wilson Thammavongsa,CA,90,89.1,1991-02-27,30,170,182.5,192.5,192.5,125,132.5,-140,132.5,245,265,-275,265,590,,SBD,Raw,M,Open
4,Jonathan Bernal,CA,90,89.1,,32,-182.5,182.5,-192.5,182.5,-130,130,140,140,230,242.5,250,250,572.5,,SBD,Raw,M,Open
5,Peter Eraca,CA,90,87.5,1983-05-26,38,165,172.5,-182.5,172.5,112.5,115,-120,115,195,200,207.5,207.5,495,,SBD,Raw,M,Open
6,Carlos Reyes #5,CA,90,88,,34,157.5,165,-172.5,165,82.5,90,100,100,190,205,220,220,485,,SBD,Raw,M,Open
1,Shawn Murphy #1,CA,100,98.4,,26,290,300,307.5,307.5,150,157.5,-167.5,157.5,310,-317.5,317.5,317.5,782.5,,SBD,Raw,M,Open
2,Alejandro Vaca,CA,100,99.9,,26,220,230,-235,230,130,137.5,-142.5,137.5,280,300,310,310,677.5,,SBD,Raw,M,Open
3,Jeremiah Christich,CA,100,90.5,,29,195,207.5,215,215,127.5,135,142.5,142.5,280,-295,-295,280,637.5,,SBD,Raw,M,Open
4,Ian Swift,CA,100,98.3,,29,192.5,202.5,212.5,212.5,142.5,152.5,160,160,220,237.5,255,255,627.5,,SBD,Raw,M,Open
5,Tommy Palica,CA,100,97.8,,34,175,192.5,195,195,-117.5,117.5,-125,117.5,220,232.5,242.5,242.5,555,,SBD,Raw,M,Open
6,Matt Stropoli,CA,100,94.9,,32,182.5,192.5,200,200,120,125,-132.5,125,200,212.5,227.5,227.5,552.5,,SBD,Raw,M,Open
7,Anthony Moctezuma,CA,100,92.2,,32,175,185,-200,185,97.5,102.5,-107.5,102.5,185,197.5,210,210,497.5,,SBD,Raw,M,Open
8,Chris Bruno,CA,100,96.9,,32,135,142.5,150,150,-95,95,102.5,102.5,170,180,190,190,442.5,,SBD,Raw,M,Open
1,Sebastian Padilla,CA,110,109.3,,22,225,240,-250,240,-150,150,160,160,310,-325,-325,310,710,,SBD,Raw,M,Open
2,Jermaine Gutierrez,CA,110,109.6,,27,227.5,240,252.5,252.5,142.5,145,150,150,220,232.5,245,245,647.5,,SBD,Raw,M,Open
3,Skip Wood,CA,110,106.2,,28,-182.5,-182.5,182.5,182.5,102.5,110,112.5,112.5,205,220,227.5,227.5,522.5,,SBD,Raw,M,Open
4,Joe Chavez,CA,110,107.5,,24,-170,-170,170,170,-132.5,135,-142.5,135,205,217.5,-227.5,217.5,522.5,,SBD,Raw,M,Open
5,Luis Díaz,CA,110,109.2,,25,175,185,192.5,192.5,105,112.5,115,115,190,200,210,210,517.5,,SBD,Raw,M,Open
6,Jeremy Litchfield,CA,110,109,,32,152.5,162.5,170,170,100,105,107.5,107.5,170,180,190,190,467.5,,SBD,Raw,M,Open
DQ,Daniel Silva Santisteban,CA,110,108.6,,35,200,210,-217.5,210,142.5,150,160,160,,,,,,,SBD,Raw,M,Open
1,Scott Watkins,CA,125,122,,36,222.5,235,242.5,242.5,172.5,182.5,-185,182.5,260,-272.5,-275,260,685,,SBD,Raw,M,Open
2,Timothy Turnbull,CA,125,121,,34,225,-235,235,235,155,160,165,165,230,240,250,250,650,,SBD,Raw,M,Open
3,Thomas Rodriguez-Swift,CA,125,121.3,,33,155,165,175,175,-90,-90,95,95,180,190,205,205,475,,SBD,Raw,M,Open
1,D'Armani Parks,CA,140,137,,25,215,227.5,235,235,-137.5,137.5,150,150,220,242.5,250,250,635,,SBD,Raw,M,Open
2,Larry Madill,CA,140,130.9,,41,-155,-165,165,165,100,107.5,112.5,112.5,180,197.5,205,205,482.5,,SBD,Raw,M,Open
1,William Hubner,CA,90,87.1,,36,187.5,200,210,210,112.5,120,-125,120,220,-235,235,235,565,,SBD,Raw,M,Submasters 35-39
2,Peter Eraca,CA,90,87.5,,38,165,172.5,-182.5,172.5,112.5,115,-120,115,195,200,207.5,207.5,495,,SBD,Raw,M,Submasters 35-39
3,Louis James Tanuis Jr,NV,90,88.7,,35,92.5,-105,120,120,92.5,110,122.5,122.5,165,187.5,195,195,437.5,,SBD,Raw,M,Submasters 35-39
1,Scott Watkins,CA,125,122,,36,222.5,235,242.5,242.5,172.5,182.5,-185,182.5,260,-272.5,-275,260,685,,SBD,Raw,M,Submasters 35-39
1,Andrew Mirzaoff,CA,100,96.6,,73,125,130,-137.5,130,85,90,100,100,155,167.5,182.5,182.5,412.5,,SBD,Raw,M,Masters 70-74
1,Derek Stock,CA,110,105.3,,52,165,177.5,187.5,187.5,145,152.5,-157.5,152.5,202.5,215,227.5,227.5,567.5,,SBD,Raw,M,Masters 50-54
1,Larry Madill,CA,140,130.9,,41,-155,-165,165,165,100,107.5,112.5,112.5,180,197.5,205,205,482.5,,SBD,Raw,M,Masters 40-44
1,Brian Friedman,CA,140+,214,,41,75,,,75,-187.5,-187.5,187.5,187.5,70,,,70,332.5,,SBD,Raw,M,Masters 40-44
1,Elias Lane,CA,67.5,65.8,,18,105,-117.5,117.5,117.5,75,77.5,82.5,82.5,137.5,150,-157.5,150,350,,SBD,Wraps,M,Juniors 18-19
1,Ricardo Toriz,CA,140,135.9,,23,272.5,-292.5,,272.5,162.5,-172.5,,162.5,295,-310,-325,295,730,,SBD,Wraps,M,Juniors 20-23
1,Roni Avakian,CA,125,117.4,,25,270,285,-300,285,170,-177.5,-177.5,170,265,275,282.5,282.5,737.5,,SBD,Wraps,M,Open
1,George Ande,CA,90,89.3,,70,125,130,-142.5,130,80,85,-87.5,85,150,160,-172.5,160,375,,SBD,Wraps,M,Masters 70-74
1,Michael Eisner,CA,140+,160.1,,26,,,,,177.5,185,190,190,,,,,190,,B,Raw,M,Open
1,Kristen Jacobson,CA,75,73.1,,38,,,,,,,,,110,125,137.5,137.5,137.5,,D,Raw,F,Submasters 35-39
1,Monica Piszyk,CA,75,73.1,,42,,,,,,,,,80,87.5,92.5,92.5,92.5,,D,Raw,F,Masters 40-44
1,Roy Taylor,CA,82.5,79.4,,81,,,,,,,,,135,140,147.5,147.5,147.5,150,D,Raw,M,Masters 80+
