Division,WeightClassKg,Place,Name,Team,BodyweightKg,Best3SquatKg,Best3BenchKg,Best3DeadliftKg,TotalKg,Equipment,Event,Sex,BirthDate
Boys,51.71,1,Tre Ortega,Bishop,51.71,92.99,56.7,120.2,269.89,Single-ply,SBD,M,
Boys,55.79,1,William Martinez,Aransas Pass,54.61,92.99,68.04,111.13,272.16,Single-ply,SBD,M,
Boys,59.87,1,Teo Pelagio,Bishop,59.87,113.4,72.57,131.54,317.51,Single-ply,SBD,M,
Boys,67.13,1,Douglas Escobedo,Aransas Pass,65.5,158.76,95.25,170.1,424.11,Single-ply,SBD,M,
Boys,67.13,2,Evan Bernal,Alice,65.5,158.76,92.99,170.1,421.84,Single-ply,SBD,M,
Boys,67.13,3,Justin Perrigo,Aransas Pass,62.69,81.65,70.31,147.42,299.37,Single-ply,SBD,M,
Boys,67.13,DQ,Andy Garcia,Aransas Pass,60.33,113.4,,,,Single-ply,SBD,M,
Boys,74.84,1,Eljjah Sustaita,Beeville Jones,72.48,161.03,92.99,165.56,419.57,Single-ply,SBD,M,
Boys,82.1,1,Jacob Martin,Beeville Jones,81.19,156.49,92.99,165.56,415.04,Single-ply,SBD,M,
Boys,82.1,2,Kohl Garcia,Bishop,76.75,147.42,97.52,167.83,412.77,Single-ply,SBD,M,
Boys,82.1,3,Parker Garza,Beeville Jones,81.37,136.08,70.31,142.88,349.27,Single-ply,SBD,M,
Boys,82.1,4,Chase Mrazek,Bishop,80.2,117.93,52.16,156.49,326.59,Single-ply,SBD,M,
Boys,82.1,5,Ryan McCraw,Bishop,79.83,97.52,56.7,104.33,258.55,Single-ply,SBD,M,
Boys,89.81,1,Aydon Sarate,Beeville Jones,85.09,192.78,136.08,167.83,496.68,Single-ply,SBD,M,
Boys,89.81,2,Thaddeus Cisneros,Alice,87.91,124.74,83.91,154.22,362.87,Single-ply,SBD,M,
Boys,89.81,3,Kevin Guajardo,Bishop,87.72,97.52,68.04,120.2,285.76,Single-ply,SBD,M,
Boys,89.81,4,Dominic Smith,Beeville Jones,86.73,99.79,68.04,111.13,278.96,Single-ply,SBD,M,
Boys,99.79,1,Juan Villarreal,Beeville Jones,93.53,154.22,106.59,190.51,451.32,Single-ply,SBD,M,
Boys,99.79,2,Juan Pablo Sanchez,Beeville Jones,92.35,163.29,74.84,161.03,399.16,Single-ply,SBD,M,
Boys,99.79,3,Ramiro Cantu,Alice,96.89,147.42,92.99,136.08,376.48,Single-ply,SBD,M,
Boys,109.77,1,Eian Meza,Aransas Pass,108.77,183.7,133.81,185.97,503.49,Single-ply,SBD,M,
Boys,109.77,2,Ethan Sanchez,Alice,103.42,124.74,74.84,136.08,335.66,Single-ply,SBD,M,
Boys,109.77,3,Dakota Cordona,Alice,105.41,102.06,79.38,111.13,292.57,Single-ply,SBD,M,
Boys,124.74,1,Arnulfo Puga,Beeville Jones,118.02,181.44,102.06,145.15,428.64,Single-ply,SBD,M,
Boys,124.74,2,Jose Morales,Bishop,117.48,142.88,108.86,158.76,410.5,Single-ply,SBD,M,
Boys,124.74,3,Noah Horton,Beeville Jones,124.01,161.03,95.25,133.81,390.09,Single-ply,SBD,M,
Boys,139.71+,1,Randy Dorsey,Bishop,156.94,127.01,70.31,145.15,342.46,Single-ply,SBD,M,
