Division,WeightClassKg,Place,Name,Team,BodyweightKg,Best3SquatKg,Best3BenchKg,Best3DeadliftKg,TotalKg,Equipment,Event,Sex,BirthDate
Boys,67.13,1,Lucas Johnson,Dayton,64.86,149.69,70.31,165.56,385.55,Single-ply,SBD,M,
Boys,67.13,2,Avery Toole,Dayton,62.23,113.4,83.91,167.83,365.14,Single-ply,SBD,M,
Boys,67.13,3,O'Neal Justin,Huffman Hargrave,64.86,188.24,111.13,,299.37,Single-ply,SB,M,
Boys,67.13,4,Israel Jones,Dayton,67.13,97.52,74.84,,172.37,Single-ply,SB,M,
Boys,74.84,1,Blake Scarborough,Huffman Hargrave,69.49,136.08,92.99,149.69,378.75,Single-ply,SBD,M,
Boys,74.84,2,Cash Davis,Huffman Hargrave,69.58,133.81,72.57,142.88,349.27,Single-ply,SBD,M,
Boys,74.84,3,Ethan Brandt,Dayton,69.31,111.13,58.97,133.81,303.91,Single-ply,SBD,M,
Boys,74.84,4,Austin Johnson,Huffman Hargrave,70.58,97.52,63.5,120.2,281.23,Single-ply,SBD,M,
Boys,74.84,5,Evan Young,Dayton,71.8,106.59,,,106.59,Single-ply,S,M,
Boys,82.1,1,Conner Halbrooks,Huffman Hargrave,81.01,183.7,124.74,170.1,478.54,Single-ply,SBD,M,
Boys,82.1,2,Levi Brown,Dayton,78.2,113.4,65.77,133.81,312.98,Single-ply,SBD,M,
Boys,99.79,1,Micah Hanna,Huffman Hargrave,97.98,208.65,129.27,192.78,530.7,Single-ply,SBD,M,
Boys,99.79,2,Colton Jacobs,Huffman Hargrave,98.88,183.7,124.74,192.78,501.22,Single-ply,SBD,M,
Boys,99.79,DQ,Cayden Miller,Huffman Hargrave,95.39,,,,,Single-ply,SBD,M,
Boys,109.77,1,Noah Brown,Dayton,100.33,201.85,108.86,197.31,508.02,Single-ply,SBD,M,
Boys,124.74,1,Zach Pitts,Huffman Hargrave,117.93,235.87,156.49,,392.36,Single-ply,SB,M,
Boys,139.71+,1,Breck Machala,Huffman Hargrave,142.97,254.01,161.03,231.33,646.37,Single-ply,SBD,M,
