Division,WeightClassKg,Place,Name,Team,BodyweightKg,Best3SquatKg,Best3BenchKg,Best3DeadliftKg,TotalKg,Equipment,Event,Sex,BirthDate
Boys,51.71,1,John Wyatt,Fort Worth Chisholm Trail,51.17,140.61,86.18,142.88,369.68,Single-ply,SBD,M,
Boys,51.71,2,Bradley Skrdla,Azle,51.44,127.01,72.57,154.22,353.8,Single-ply,SBD,M,
Boys,51.71,3,Joseph Sandoval,Azle,51.07,122.47,56.7,136.08,315.25,Single-ply,SBD,M,
Boys,51.71,4,Nhat Hoang,Granbury,51.62,104.33,65.77,138.35,308.44,Single-ply,SBD,M,
Boys,51.71,5,Ethan Bolin,Fort Worth Boswell,51.44,92.99,63.5,104.33,260.82,Single-ply,SBD,M,
Boys,51.71,6,Juan Avelarolmos,Saginaw,51.62,81.65,49.9,97.52,229.06,Single-ply,SBD,M,
Boys,51.71,7,Seth Beneze,Glen Rose,50.62,90.72,47.63,81.65,219.99,Single-ply,SBD,M,
Boys,55.79,1,Ethan Jackson,Springtown,54.61,185.97,90.72,176.9,453.59,Single-ply,SBD,M,
Boys,55.79,2,Joe Builtron,Fort Worth Boswell,55.61,127.01,68.04,136.08,331.12,Single-ply,SBD,M,
Boys,55.79,3,Antonio Aldaco,Fort Worth Boswell,54.34,124.74,72.57,131.54,328.85,Single-ply,SBD,M,
Boys,55.79,4,Hunter Ooten,Azle,55.16,113.4,65.77,140.61,319.78,Single-ply,SBD,M,
Boys,59.87,1,Meschac Ntuaremba,Saginaw,57.15,154.22,90.72,170.1,415.04,Single-ply,SBD,M,
Boys,59.87,2,Logan Claunch,Fort Worth Boswell,59.87,151.95,102.06,158.76,412.77,Single-ply,SBD,M,
Boys,59.87,3,Vicar Sampley,Azle,58.51,149.69,74.84,147.42,371.95,Single-ply,SBD,M,
Boys,67.13,1,Djonny Mukuna,Saginaw,66.86,190.51,120.2,213.19,523.9,Single-ply,SBD,M,
Boys,67.13,2,Tyler Rodgers,Granbury,66.5,181.44,111.13,213.19,505.76,Single-ply,SBD,M,
Boys,67.13,3,Gavin Hacker,Azle,65.86,201.85,106.59,183.7,492.15,Single-ply,SBD,M,
Boys,67.13,4,Denim Fields,Azle,65.5,165.56,92.99,183.7,442.25,Single-ply,SBD,M,
Boys,67.13,5,Ethan Hodkinson,Fort Worth Boswell,66.59,167.83,97.52,174.63,439.98,Single-ply,SBD,M,
Boys,67.13,DQ,Jack Jestis,Azle,66.59,167.83,,,,Single-ply,SBD,M,
Boys,67.13,DQ,Andrew Chasteen,Aledo,66.32,,,,,Single-ply,SBD,M,
Boys,74.84,1,Kevin Nyguen,Azle,74.75,197.31,142.88,226.8,566.99,Single-ply,SBD,M,
Boys,74.84,2,Colten Wilson,Fort Worth Boswell,71.21,206.38,104.33,242.67,553.38,Single-ply,SBD,M,
Boys,74.84,3,Preston Lutgen,Granbury,74.21,176.9,136.08,226.8,539.77,Single-ply,SBD,M,
Boys,74.84,4,Jordan De Hoyas,Fort Worth Boswell,72.53,201.85,115.67,217.72,535.24,Single-ply,SBD,M,
Boys,74.84,5,Josiah Groeneweg,Glen Rose,69.31,176.9,95.25,185.97,458.13,Single-ply,SBD,M,
Boys,74.84,6,Brandon Richardson,Saginaw,74.84,185.97,77.11,172.37,435.45,Single-ply,SBD,M,
Boys,74.84,7,James Pompa,Glen Rose,73.21,163.29,83.91,163.29,410.5,Single-ply,SBD,M,
Boys,74.84,8,Orion Gray,Springtown,70.49,142.88,97.52,165.56,405.97,Single-ply,SBD,M,
Boys,82.1,1,Alec Boyle,White Settlement Brewer,81.19,249.48,188.24,213.19,650.91,Single-ply,SBD,M,
Boys,82.1,2,Parker Stephenson,Glen Rose,79.29,204.12,113.4,217.72,535.24,Single-ply,SBD,M,
Boys,82.1,3,Vance Guthrie,Azle,78.56,197.31,122.47,213.19,532.97,Single-ply,SBD,M,
Boys,82.1,4,Kenneth Lohmer,Aledo,81.47,206.38,124.74,181.44,512.56,Single-ply,SBD,M,
Boys,82.1,5,Tristan Black,Glen Rose,81.01,204.12,102.06,197.31,503.49,Single-ply,SBD,M,
Boys,82.1,6,Alec Mankowski,Granbury,79.38,188.24,113.4,197.31,498.95,Single-ply,SBD,M,
Boys,82.1,7,Case Moore,Azle,79.92,192.78,124.74,176.9,494.42,Single-ply,SBD,M,
Boys,82.1,8,Mehki Elmore,White Settlement Brewer,81.01,188.24,108.86,197.31,494.42,Single-ply,SBD,M,
Boys,82.1,9,Magnum Saenz,Fort Worth Chisholm Trail,77.11,170.1,124.74,163.29,458.13,Single-ply,SBD,M,
Boys,82.1,10,Khalil Stolden,White Settlement Brewer,80.2,167.83,99.79,181.44,449.06,Single-ply,SBD,M,
Boys,89.81,1,Shone Mombo,Fort Worth Chisholm Trail,89.81,204.12,142.88,244.94,591.94,Single-ply,SBD,M,
Boys,89.81,2,Davhon Keys,Aledo,89.45,204.12,142.88,233.6,580.6,Single-ply,SBD,M,
Boys,89.81,3,Ethan Moore,White Settlement Brewer,87.54,210.92,120.2,226.8,557.92,Single-ply,SBD,M,
Boys,89.81,4,Matthew Gonzales,Aledo,87.63,222.26,136.08,199.58,557.92,Single-ply,SBD,M,
Boys,89.81,5,Drew Dorris,Azle,86.55,229.06,115.67,206.38,551.11,Single-ply,SBD,M,
Boys,89.81,6,Cap Mooney,Aledo,87.18,210.92,140.61,199.58,551.11,Single-ply,SBD,M,
Boys,89.81,7,Ryder Cook,Glen Rose,88.27,213.19,117.93,208.65,539.77,Single-ply,SBD,M,
Boys,89.81,8,Gabe Wright,Fort Worth Boswell,89.36,204.12,115.67,217.72,537.51,Single-ply,SBD,M,
Boys,89.81,9,Ezra Carter,Fort Worth Boswell,88.99,199.58,127.01,206.38,532.97,Single-ply,SBD,M,
Boys,89.81,10,Jacob Brewer,Saginaw,87.36,185.97,111.13,213.19,510.29,Single-ply,SBD,M,
Boys,89.81,11,Hunter Douglas,Glen Rose,86.36,176.9,104.33,190.51,471.74,Single-ply,SBD,M,
Boys,89.81,12,Hayden Nichols,Springtown,83.1,154.22,106.59,192.78,453.59,Single-ply,SBD,M,
Boys,89.81,13,Ridge Westendorf,Springtown,89.09,154.22,108.86,183.7,446.79,Single-ply,SBD,M,
Boys,99.79,1,Courtney Pruitt,White Settlement Brewer,98.34,238.14,163.29,226.8,628.23,Single-ply,SBD,M,
Boys,99.79,2,Parker Lutgen,Granbury,97.16,210.92,138.35,242.67,591.94,Single-ply,SBD,M,
Boys,99.79,3,Colten Hope,Aledo,97.16,226.8,140.61,222.26,589.67,Single-ply,SBD,M,
Boys,99.79,4,Alex Arana,Aledo,91.35,231.33,131.54,224.53,587.4,Single-ply,SBD,M,
Boys,99.79,5,Luke Stettler,Granbury,92.44,217.72,136.08,226.8,580.6,Single-ply,SBD,M,
Boys,99.79,6,Elijah Richardson,White Settlement Brewer,94.17,210.92,136.08,222.26,569.26,Single-ply,SBD,M,
Boys,99.79,7,Eli Hansen,Springtown,96.07,226.8,127.01,201.85,555.65,Single-ply,SBD,M,
Boys,99.79,8,Keltyn Raymond,Glen Rose,95.62,199.58,108.86,226.8,535.24,Single-ply,SBD,M,
Boys,99.79,9,Aaron Bowen,Springtown,97.61,208.65,129.27,188.24,526.17,Single-ply,SBD,M,
Boys,99.79,10,Sawyer Ghazal,Glen Rose,97.7,192.78,120.2,183.7,496.68,Single-ply,SBD,M,
Boys,99.79,11,John Espinoza,Fort Worth Chisholm Trail,94.53,195.04,102.06,197.31,494.42,Single-ply,SBD,M,
Boys,99.79,12,Cambryn Holbrooks,Springtown,96.25,151.95,106.59,195.04,453.59,Single-ply,SBD,M,
Boys,99.79,13,Zane Sudduth,Springtown,96.52,170.1,99.79,183.7,453.59,Single-ply,SBD,M,
Boys,99.79,14,Caiden Haidusek,Springtown,96.16,158.76,99.79,181.44,439.98,Single-ply,SBD,M,
Boys,109.77,1,Kolten Trevino,Granbury,107.77,290.3,174.63,247.21,712.14,Single-ply,SBD,M,
Boys,109.77,2,Brayden Olthoff,Granbury,101.51,256.28,195.04,244.94,696.26,Single-ply,SBD,M,
Boys,109.77,3,Cayson Hand,Aledo,101.24,217.72,131.54,201.85,551.11,Single-ply,SBD,M,
Boys,109.77,4,Alijah Brand,Fort Worth Boswell,104.96,201.85,136.08,213.19,551.11,Single-ply,SBD,M,
Boys,109.77,5,Isaac Knott,Aledo,104.69,210.92,124.74,206.38,542.04,Single-ply,SBD,M,
Boys,109.77,6,Harley Bowman,Glen Rose,107.5,199.58,124.74,217.72,542.04,Single-ply,SBD,M,
Boys,109.77,7,Mason Munk,Fort Worth Boswell,100.24,197.31,129.27,210.92,537.51,Single-ply,SBD,M,
Boys,109.77,8,Jeremiah Dowell,Fort Worth Chisholm Trail,101.88,190.51,124.74,210.92,526.17,Single-ply,SBD,M,
Boys,109.77,9,Elijah Raya,Fort Worth Chisholm Trail,101.51,185.97,113.4,190.51,489.88,Single-ply,SBD,M,
Boys,124.74,1,Robert Orr,White Settlement Brewer,116.21,278.96,174.63,251.74,705.34,Single-ply,SBD,M,
Boys,124.74,2,Danny Simmons,Fort Worth Chisholm Trail,111.31,263.08,163.29,256.28,682.66,Single-ply,SBD,M,
Boys,124.74,3,Austin Lyon,Fort Worth Boswell,122.92,265.35,158.76,249.48,673.58,Single-ply,SBD,M,
Boys,124.74,4,Ansel Din-Mbuh,Aledo,118.39,254.01,158.76,240.4,653.17,Single-ply,SBD,M,
Boys,124.74,5,Enrique Sanchez,Granbury,112.58,217.72,161.03,238.14,616.89,Single-ply,SBD,M,
Boys,124.74,6,Braden Murray,Azle,116.03,249.48,158.76,208.65,616.89,Single-ply,SBD,M,
Boys,124.74,7,Jeremy Morrow,Springtown,122.92,247.21,147.42,217.72,612.35,Single-ply,SBD,M,
Boys,124.74,8,Peyton Klein,Glen Rose,116.39,254.01,138.35,206.38,598.74,Single-ply,SBD,M,
Boys,124.74,9,Gerardo De La O,Saginaw,111.49,204.12,124.74,213.19,542.04,Single-ply,SBD,M,
Boys,124.74,10,Javier Garcia,Fort Worth Chisholm Trail,116.48,217.72,120.2,192.78,530.7,Single-ply,SBD,M,
Boys,124.74,11,Donell Jackson,Saginaw,116.66,181.44,115.67,204.12,501.22,Single-ply,SBD,M,
Boys,124.74,12,Kelsey Tshimpamba,Fort Worth Chisholm Trail,112.49,199.58,104.33,195.04,498.95,Single-ply,SBD,M,
Boys,124.74,13,Alexander Aguirre,Saginaw,113.85,181.44,95.25,208.65,485.34,Single-ply,SBD,M,
Boys,124.74,14,James Snyder,Springtown,120.38,165.56,111.13,165.56,442.25,Single-ply,SBD,M,
Boys,124.74,DQ,Byron Moreno-Wheeler,Aledo,116.03,242.67,147.42,,,Single-ply,SBD,M,
Boys,139.71,1,Drew Garcia,Saginaw,137.62,229.06,129.27,231.33,589.67,Single-ply,SBD,M,
Boys,139.71,2,Devron Williams,Aledo,138.98,206.38,133.81,201.85,542.04,Single-ply,SBD,M,
Boys,139.71,3,Monte Whipple,Granbury,135.35,195.04,133.81,192.78,521.63,Single-ply,SBD,M,
Boys,139.71,4,Peyton Ibarra,Glen Rose,135.44,204.12,102.06,195.04,501.22,Single-ply,SBD,M,
Boys,139.71,5,Oliver Hobbs,Springtown,126.46,188.24,124.74,183.7,496.68,Single-ply,SBD,M,
Boys,139.71,6,Darron Copeland,Fort Worth Chisholm Trail,133.27,183.7,117.93,183.7,485.34,Single-ply,SBD,M,
Boys,139.71,7,Zaylan Williams,Saginaw,126.46,185.97,95.25,170.1,451.32,Single-ply,SBD,M,
Boys,139.71,8,Contreras Hebert,Fort Worth Chisholm Trail,130.63,183.7,117.93,145.15,446.79,Single-ply,SBD,M,
Boys,139.71,DQ,Jahir Orocio,Granbury,138.98,,,,,Single-ply,SBD,M,
Boys,139.71+,1,Alex Sutton,Granbury,144.24,283.5,195.04,285.76,764.3,Single-ply,SBD,M,
Boys,139.71+,2,Cameron Hutcherson,White Settlement Brewer,165.02,276.69,158.76,254.01,689.46,Single-ply,SBD,M,
Boys,139.71+,3,Xzaviah Milton,Saginaw,147.96,265.35,185.97,172.37,623.69,Single-ply,SBD,M,
Boys,139.71+,4,Samuel Nesmith,Fort Worth Chisholm Trail,156.31,199.58,136.08,208.65,544.31,Single-ply,SBD,M,
Boys,139.71+,5,Anthony Rodriguez,Saginaw,150.41,204.12,92.99,222.26,519.36,Single-ply,SBD,M,
