Place,Name,Sex,Event,Division,WeightClassKg,Equipment,BirthYear,State,BodyweightKg,Squat1Kg,Squat2Kg,Squat3Kg,Best3SquatKg,Bench1Kg,Bench2Kg,Bench3Kg,Best3BenchKg,Deadlift1Kg,Deadlift2Kg,Deadlift3Kg,Best3DeadliftKg,TotalKg,Age,BirthDate
G,Christopher Scaplen,M,B,MR-G,82.5,Raw,2001,MA,80.7,,,,,160,170,175,175,,,,,175,,
1,Steven Nelson,M,B,MR-M,100,Raw,1958,NH,94.6,,,,,-140,-140,140,140,,,,,140,,
G,Hannah Wilbur,F,SBD,FR-G,75,Raw,2003,ME,74.5,90,-97.5,102.5,102.5,45,50,-52.5,50,105,112.5,-120,112.5,265,,
G,Betty Peterson,F,SBD,FR-G,75,Raw,1977,ME,73.3,75,82.5,90,90,40,47.5,52.5,52.5,97.5,105,112.5,112.5,255,,
G,Jennifer Hofmann,F,SBD,FR-G,67.5,Raw,1998,MA,67.35,115,122.5,130,130,85,87.5,90,90,147.5,157.5,162.5,162.5,382.5,,
G,Julia Wells,F,SBD,FR-G,82.5,Raw,2005,ME,75.65,-115,120,127.5,127.5,57.5,62.5,70,70,120,130,137.5,137.5,335,,
G,Eva Stevens,F,SBD,FR-G,82.5,Raw,2004,ME,78,100,110,115,115,40,45,50,50,115,-125,137.5,137.5,302.5,,
1,Abigail O'Brien,F,SBD,FR-Jr,67.5,Raw,2002,NH,66.65,107.5,112.5,122.5,122.5,60,65,-72.5,65,122.5,132.5,140,140,327.5,,
1,Nicole Carrier,F,SBD,FR-M,75,Raw,1972,NH,69.3,115,122.5,127.5,127.5,65,70,72.5,72.5,137.5,145,-152.5,145,345,,
2,Ashley Gray #3,F,SBD,FR-M,75,Raw,1982,NH,69.6,-72.5,-77.5,82.5,82.5,55,60,65,65,75,87.5,95,95,242.5,,
3,Candy Osborne,F,SBD,FR-M,75,Raw,1974,NH,73.3,-80,-80,80,80,42.5,-47.5,-47.5,42.5,110,120,-125,120,242.5,,
1,Julie Labonte,F,SBD,FR-M,82.5,Raw,1982,NH,81.1,115,122.5,127.5,127.5,82.5,87.5,92.5,92.5,132.5,142.5,147.5,147.5,367.5,,
1,Casluh Chamberlain,F,SBD,FR-O,75,Raw,1989,NH,74.4,130,-142.5,142.5,142.5,77.5,85,-87.5,85,147.5,160,-167.5,160,387.5,,
2,Sam Grubbs #1,F,SBD,FR-O,75,Raw,1997,NH,75,140,-145,-145,140,70,-72.5,72.5,72.5,160,167.5,172.5,172.5,385,,
3,Nicole Carrier,F,SBD,FR-O,75,Raw,1972,NH,69.3,115,122.5,127.5,127.5,65,70,72.5,72.5,137.5,145,-152.5,145,345,,
1,Samantha Nacos,F,SBD,FR-O,100+,Raw,1988,NH,110.95,-132.5,140,145,145,85,90,97.5,97.5,137.5,145,157.5,157.5,400,,
2,Brittany Hebert,F,SBD,FR-O,100+,Raw,1990,NH,100.3,112.5,117.5,120,120,67.5,72.5,-75,72.5,125,130,135,135,327.5,,
1,Lindsay Thompson,F,SBD,FR-O,67.5,Raw,1990,NH,65.1,107.5,115,-120,115,62.5,67.5,70,70,142.5,152.5,160,160,345,,
1,Julie Labonte,F,SBD,FR-O,82.5,Raw,1982,NH,81.1,115,122.5,127.5,127.5,82.5,87.5,92.5,92.5,132.5,142.5,147.5,147.5,367.5,,
1,Brianna Hannigan,F,SBD,FR-T3,48,Raw,2002,NH,47.35,87.5,97.5,105,105,-42.5,47.5,52.5,52.5,132.5,145,155,155,312.5,,
G,Zachary Wilkins,M,SBD,MR-G,75,Raw,1992,MA,73.8,170,180,187.5,187.5,112.5,117.5,120,120,207.5,220,227.5,227.5,535,,
G,Alvaro Tejada,M,SBD,MR-G,75,Raw,1994,MA,74,75,,,75,142.5,150,-155,150,75,,,75,300,,
G,Kyle Davidson #1,M,SBD,MR-G,90,Raw,1994,NY,89.2,232.5,-245,,232.5,137.5,140,-142.5,140,275,292.5,-305,292.5,665,,
G,Dylan Gutheil,M,SBD,MR-G,90,Raw,1990,MA,83.55,217.5,225,-230,225,127.5,135,137.5,137.5,255,-262.5,-262.5,255,617.5,,
G,Jacob Moriarty,M,SBD,MR-G,90,Raw,1997,MA,87.5,207.5,217.5,-222.5,217.5,132.5,137.5,145,145,235,255,-270,255,617.5,,
G,Trevor Moore,M,SBD,MR-G,90,Raw,2002,VT,88.75,-182.5,192.5,202.5,202.5,115,122.5,-130,122.5,220,232.5,-245,232.5,557.5,,
G,Brighton Babcock,M,SBD,MR-G,90,Raw,2005,ME,86.45,195,-200,,195,125,-127.5,,125,210,-225,,210,530,,
G,Steven Berry,M,SBD,MR-G,90,Raw,1975,MA,89.05,162.5,175,182.5,182.5,117.5,120,127.5,127.5,192.5,205,207.5,207.5,517.5,,
G,Kyle Power,M,SBD,MR-G,100,Raw,1993,MA,99,285,300,307.5,307.5,182.5,192.5,200,200,290,-310,330,330,837.5,,
G,Patrick Mather,M,SBD,MR-G,100,Raw,1999,VT,95.7,205,215,222.5,222.5,-155,-157.5,157.5,157.5,235,245,-255,245,625,,
G,Matthew Buck #1,M,SBD,MR-G,100,Raw,1993,MA,98.15,185,195,205,205,117.5,122.5,130,130,210,220,230,230,565,,
G,Dhimitri Bido,M,SBD,MR-G,82.5,Raw,1999,MA,82.45,192.5,207.5,217.5,217.5,150,157.5,165,165,-250,270,282.5,282.5,665,,
G,Andrew Graves,M,SBD,MR-G,82.5,Raw,1997,ME,81.7,222.5,235,-242.5,235,150,157.5,160,160,235,247.5,255,255,650,,
G,Scott Kaye,M,SBD,MR-G,82.5,Raw,1989,MA,80.95,175,185,-192.5,185,130,135,140,140,225,237.5,245,245,570,,
1,John McNamara,M,SBD,MR-Jr,60,Raw,2001,NH,60,120,-127.5,130,130,67.5,72.5,-80,72.5,172.5,185,195,195,397.5,,
1,Jay Wozniak,M,SBD,MR-Jr,90,Raw,2002,NH,89.7,210,215,227.5,227.5,130,137.5,142.5,142.5,270,282.5,290,290,660,,
1,Ian Covell,M,SBD,MR-Jr,100,Raw,2001,NH,97.8,242.5,255,-265,255,180,190,200,200,265,272.5,277.5,277.5,732.5,,
1,Tyler Crocco,M,SBD,MR-Jr,82.5,Raw,1999,NH,82.1,162.5,170,177.5,177.5,117.5,125,137.5,137.5,175,187.5,202.5,202.5,517.5,,
1,Paul Lariviere,M,SBD,MR-M,75,Raw,1964,NH,74.2,165,-177.5,-177.5,165,105,110,115,115,192.5,205,215,215,495,,
1,Anotine Welch,M,SBD,MR-M,100,Raw,1975,NH,91.1,200,-225,250,250,175,195,-205,195,225,250,272.5,272.5,717.5,,
2,Jim Kathios,M,SBD,MR-M,100,Raw,1961,NH,98.15,175,180,185,185,150,155,-157.5,155,205,225,235,235,575,,
1,John McNamara,M,SBD,MR-O,60,Raw,2001,NH,60,120,-127.5,130,130,67.5,72.5,-80,72.5,172.5,185,195,195,397.5,,
1,Matthew Palumberi,M,SBD,MR-O,75,Raw,1990,NH,73.05,165,175,177.5,177.5,115,-122.5,-127.5,115,215,230,-235,230,522.5,,
1,Jordan Mann #1,M,SBD,MR-O,90,Raw,1990,NH,88.65,185,192.5,200,200,130,135,140,140,-225,240,245,245,585,,
2,Steve Vratsenes,M,SBD,MR-O,90,Raw,1998,NH,87.8,165,175,182.5,182.5,-125,130,-137.5,130,200,-210,212.5,212.5,525,,
1,Ian Covell,M,SBD,MR-O,100,Raw,2001,NH,97.8,242.5,255,-265,255,180,190,200,200,265,272.5,277.5,277.5,732.5,,
1,John Kimball,M,SBD,MR-O,110,Raw,1989,NH,103.75,232.5,245,255,255,145,150,-160,150,262.5,-277.5,,262.5,667.5,,
2,Juan Garces,M,SBD,MR-O,110,Raw,1966,NH,108.6,195,200,207.5,207.5,140,147.5,-155,147.5,215,225,-235,225,580,,
1,William Chiang,M,SBD,MR-O,67.5,Raw,1998,NH,62.25,85,87.5,100,100,70,77.5,87.5,87.5,110,125,137.5,137.5,325,,
1,Sam Pangan,M,SBD,MR-T2,75,Raw,2005,NH,71.65,155,165,172.5,172.5,75,82.5,87.5,87.5,-205,212.5,222.5,222.5,482.5,,
2,Denis Mino,M,SBD,MR-T2,75,Raw,2005,NH,70.3,130,137.5,145,145,92.5,97.5,102.5,102.5,175,-185,190,190,437.5,,
1,Jeffrey Chen #4,M,SBD,MR-T3,82.5,Raw,2003,NH,81,175,-187.5,-187.5,175,95,97.5,-100,97.5,192.5,-197.5,-197.5,192.5,465,,
1,Ariel Flaisher,F,BD,FR-Jr,67.5,Raw,1998,NH,61.6,,,,,-65,72.5,-77.5,72.5,120,-127.5,132.5,132.5,205,,
1,James Lafrance,M,BD,MR-T1,125,Raw,2007,NH,124.6,,,,,-90,90,-100,90,185,-190,-200,185,275,,
