Division,WeightClassKg,Place,Name,Team,BodyweightKg,Best3SquatKg,Best3BenchKg,Best3DeadliftKg,TotalKg,Equipment,Event,Sex,BirthDate
Boys,51.71,1,Jarred Brantley,Pecos,51.26,92.99,65.77,111.13,269.89,Single-ply,SBD,M,
Boys,55.79,1,Ryan Ramirez,Monahans,55.79,142.88,70.31,147.42,360.61,Single-ply,SBD,M,
Boys,59.87,1,Caleb Lee,Monahans,59.6,156.49,92.99,158.76,408.23,Single-ply,SBD,M,
Boys,59.87,2,Javi Garcia,Pecos,58.24,145.15,79.38,142.88,367.41,Single-ply,SBD,M,
Boys,59.87,3,Jesse Rodriguez,Monahans,56.7,117.93,63.5,136.08,317.51,Single-ply,SBD,M,
Boys,59.87,4,Caleb Gonzales,Fort Stockton,58.51,111.13,63.5,120.2,294.84,Single-ply,SBD,M,
Boys,59.87,5,Nathaniel Gonzales,Fort Stockton,59.87,111.13,65.77,113.4,290.3,Single-ply,SBD,M,
Boys,59.87,6,Jayden Guevara,Fort Stockton,56.52,102.06,58.97,106.59,267.62,Single-ply,SBD,M,
Boys,59.87,7,Jorell Tapp,Fort Stockton,57.24,72.57,45.36,77.11,195.04,Single-ply,SBD,M,
Boys,67.13,1,Gadiel Rubio,Monahans,64.86,124.74,83.91,149.69,358.34,Single-ply,SBD,M,
Boys,67.13,2,Charlie Rideout,Kermit,66.41,115.67,77.11,161.03,353.8,Single-ply,SBD,M,
Boys,67.13,3,Alonso Galindo,Fort Stockton,64.5,142.88,74.84,120.2,337.93,Single-ply,SBD,M,
Boys,67.13,4,Logan McNeely,Monahans,61.14,113.4,65.77,145.15,324.32,Single-ply,SBD,M,
Boys,67.13,5,Martin Guerrero,Fort Stockton,61.6,92.99,65.77,120.2,278.96,Single-ply,SBD,M,
Boys,74.84,1,Tanner Jones,Monahans,73.39,165.56,108.86,170.1,444.52,Single-ply,SBD,M,
Boys,74.84,2,Adan Saucedo,Monahans,71.58,161.03,90.72,190.51,442.25,Single-ply,SBD,M,
Boys,74.84,3,Mauricio Perez,Kermit,73.3,142.88,72.57,161.03,376.48,Single-ply,SBD,M,
Boys,74.84,4,Miguel Calderon,Kermit,67.77,129.27,68.04,131.54,328.85,Single-ply,SBD,M,
Boys,74.84,5,Randy Sandoval,Fort Stockton,70.03,113.4,70.31,138.35,322.05,Single-ply,SBD,M,
Boys,74.84,6,Angel Luna,Fort Stockton,67.86,113.4,65.77,138.35,317.51,Single-ply,SBD,M,
Boys,74.84,7,Levi Holland,Monahans,72.76,111.13,68.04,124.74,303.91,Single-ply,SBD,M,
Boys,74.84,8,Rylan Jimenez,Fort Stockton,69.31,83.91,65.77,120.2,269.89,Single-ply,SBD,M,
Boys,82.1,1,Israel Avila,Fort Stockton,80.29,90.72,74.84,120.2,285.76,Single-ply,SBD,M,
Boys,89.81,1,Jadyn Natividad,Pecos,89.72,204.12,122.47,170.1,496.68,Single-ply,SBD,M,
Boys,89.81,2,Guy Franco,Fort Stockton,86,142.88,92.99,124.74,360.61,Single-ply,SBD,M,
Boys,89.81,3,Jose Sarabia,Fort Stockton,87.18,124.74,65.77,115.67,306.17,Single-ply,SBD,M,
Boys,89.81,4,Ector Tapia,Fort Stockton,89.81,92.99,52.16,92.99,238.14,Single-ply,SBD,M,
Boys,99.79,1,Alonzo Uranga,Monahans,92.17,165.56,88.45,158.76,412.77,Single-ply,SBD,M,
Boys,109.77,1,Robert Burrow,Monahans,103.69,190.51,115.67,192.78,498.95,Single-ply,SBD,M,
Boys,109.77,2,Cash Flores,Monahans,106.23,172.37,120.2,174.63,467.2,Single-ply,SBD,M,
Boys,109.77,3,David Dobson,Kermit,100.61,185.97,117.93,151.95,455.86,Single-ply,SBD,M,
Boys,109.77,4,Nathan Marquez,Monahans,101.97,167.83,95.25,183.7,446.79,Single-ply,SBD,M,
Boys,109.77,5,Devin Garcia,Pecos,100.24,140.61,99.79,138.35,378.75,Single-ply,SBD,M,
Boys,109.77,6,Larvo Garcia,Fort Stockton,102.87,102.06,106.59,165.56,374.21,Single-ply,SBD,M,
Boys,124.74,DQ,Mason Rivero,Pecos,117.84,235.87,,,,Single-ply,SBD,M,
Boys,139.71,1,Aj Martinez,Kermit,133.45,111.13,72.57,156.49,340.19,Single-ply,SBD,M,
