Division,WeightClassKg,Place,Name,Team,BodyweightKg,Best3SquatKg,Best3BenchKg,Best3DeadliftKg,TotalKg,Equipment,Event,Sex,BirthDate
Boys,51.71,1,Ivan Sifuentes,Wills Point,51.71,142.88,90.72,147.42,381.02,Single-ply,SBD,M,
Boys,51.71,2,Avery Roberts,Brownsboro,51.26,127.01,74.84,138.35,340.19,Single-ply,SBD,M,
Boys,51.71,3,Cy Sledge,Henderson,51.71,113.4,79.38,124.74,317.51,Single-ply,SBD,M,
Boys,51.71,4,Micheal Lawrence,Brownsboro,51.17,106.59,68.04,129.27,303.91,Single-ply,SBD,M,
Boys,51.71,5,Steven Arvizo,Brownsboro,51.17,102.06,61.23,136.08,299.37,Single-ply,SBD,M,
Boys,51.71,6,Ethan Braun,Brownsboro,51.53,106.59,61.23,120.2,288.03,Single-ply,SBD,M,
Boys,51.71,7,Nathan Sherman,Brownsboro,50.53,99.79,61.23,124.74,285.76,Single-ply,SBD,M,
Boys,51.71,8,Mario Guajardo,Wills Point,51.53,104.33,63.5,108.86,276.69,Single-ply,SBD,M,
Boys,51.71,9,Eric White,Lindale,48.81,77.11,43.09,97.52,217.72,Single-ply,SBD,M,
Boys,51.71,10,Kolby Lynn,Rusk,49.44,68.04,38.56,83.91,190.51,Single-ply,SBD,M,
Boys,51.71,11,Arthur Arita,Tyler Chapel Hill,45.27,61.23,38.56,72.57,172.37,Single-ply,SBD,M,
Boys,51.71,DQ,Kelton Varner,Paris,51.17,,,,,Single-ply,SBD,M,
Boys,55.79,1,Jakovi Dabbs,Paris,53.61,156.49,97.52,195.04,449.06,Single-ply,SBD,M,
Boys,55.79,2,Caleb Webb,Wills Point,55.79,147.42,97.52,154.22,399.16,Single-ply,SBD,M,
Boys,55.79,3,Terrynce Williams,Terrell,53.52,151.95,61.23,133.81,347,Single-ply,SBD,M,
Boys,55.79,4,Ethan Ramsey,Brownsboro,54.34,124.74,74.84,145.15,344.73,Single-ply,SBD,M,
Boys,55.79,5,Elijah Burrow,Gilmer,54.79,113.4,86.18,120.2,319.78,Single-ply,SBD,M,
Boys,55.79,6,Logan Huerta,Lindale,54.52,104.33,70.31,111.13,285.76,Single-ply,SBD,M,
Boys,55.79,7,Minh Nguyen,Mabank,55.43,113.4,58.97,108.86,281.23,Single-ply,SBD,M,
Boys,55.79,8,Agusting Rodriguez,Athens,52.44,99.79,49.9,124.74,274.42,Single-ply,SBD,M,
Boys,55.79,DQ,Jace Harrod,Palestine,54.25,,,,,Single-ply,SBD,M,
Boys,59.87,1,Kyle Crawford,Brownsboro,59.78,195.04,117.93,219.99,532.97,Single-ply,SBD,M,
Boys,59.87,2,Luke Elrod,Paris North Lamar,58.97,170.1,95.25,190.51,455.86,Single-ply,SBD,M,
Boys,59.87,3,Davis Njoroge,Wills Point,57.97,179.17,81.65,170.1,430.91,Single-ply,SBD,M,
Boys,59.87,4,Samuel Shankles,Longview Spring Hill,59.69,154.22,102.06,161.03,417.3,Single-ply,SBD,M,
Boys,59.87,5,Curtis Griffith,Canton,59.06,149.69,79.38,147.42,376.48,Single-ply,SBD,M,
Boys,59.87,6,Rocky Bonilla,Kaufman,59.06,129.27,70.31,151.95,351.53,Single-ply,SBD,M,
Boys,59.87,7,Sheldon Taylor,Wills Point,59.42,113.4,68.04,156.49,337.93,Single-ply,SBD,M,
Boys,59.87,8,Sam Carter #2,Mabank,58.69,104.33,81.65,147.42,333.39,Single-ply,SBD,M,
Boys,59.87,9,RJ Galloway,Texarkana Liberty-Eylau,58.97,113.4,83.91,122.47,319.78,Single-ply,SBD,M,
Boys,59.87,10,Tanner Brooks,Rusk,59.87,104.33,68.04,136.08,308.44,Single-ply,SBD,M,
Boys,59.87,DQ,Cashis Lee-Brown,Athens,59.42,136.08,,,,Single-ply,SBD,M,
Boys,67.13,1,Tyler Hunt,Palestine,66.41,219.99,129.27,197.31,546.58,Single-ply,SBD,M,
Boys,67.13,2,Johnathan Jones,Paris,67.13,215.46,106.59,208.65,530.7,Single-ply,SBD,M,
Boys,67.13,3,Landon Fretwell,Brownsboro,66.59,197.31,122.47,208.65,528.44,Single-ply,SBD,M,
Boys,67.13,4,Daniel Cabrera,Tyler Chapel Hill,66.77,195.04,124.74,197.31,517.1,Single-ply,SBD,M,
Boys,67.13,5,Demarian Sanders,Tyler Chapel Hill,63.41,158.76,108.86,206.38,474,Single-ply,SBD,M,
Boys,67.13,6,Jalin Hines,Lindale,63.96,176.9,95.25,188.24,460.4,Single-ply,SBD,M,
Boys,67.13,7,Alan Rojo,Rusk,66.86,165.56,106.59,181.44,453.59,Single-ply,SBD,M,
Boys,67.13,DQ,Ruger Cates,Wills Point,66.32,,,,,Single-ply,SBD,M,
Boys,67.13,DQ,Alex Gonzalez #3,Mabank,66.59,,,,,Single-ply,SBD,M,
Boys,67.13,DQ,Caiden Lee,Bullard,66.59,174.63,,,,Single-ply,SBD,M,
Boys,67.13,DQ,Martin Camargo,Henderson,66.22,,,,,Single-ply,SBD,M,
Boys,67.13,DQ,Freddy Ponce,Gilmer,62.96,,,,,Single-ply,SBD,M,
Boys,74.84,1,Mickey Ray,Bullard,73.66,226.8,115.67,219.99,562.45,Single-ply,SBD,M,
Boys,74.84,2,Kadyn McDonald,Paris,74.84,208.65,117.93,226.8,553.38,Single-ply,SBD,M,
Boys,74.84,3,Robert Haney,Brownsboro,70.94,185.97,138.35,197.31,521.63,Single-ply,SBD,M,
Boys,74.84,4,Jaborian Cook,Tyler Chapel Hill,69.58,188.24,113.4,188.24,489.88,Single-ply,SBD,M,
Boys,74.84,5,Mitchum Patterson,Kaufman,74.84,174.63,117.93,197.31,489.88,Single-ply,SBD,M,
Boys,74.84,6,Kenneth Posey,Paris North Lamar,73.21,165.56,108.86,197.31,471.74,Single-ply,SBD,M,
Boys,74.84,7,Eric Allen,Center,71.3,161.03,97.52,208.65,467.2,Single-ply,SBD,M,
Boys,74.84,8,Abraham Rosales,Rusk,71.76,158.76,117.93,170.1,446.79,Single-ply,SBD,M,
Boys,74.84,DQ,Malaki Tillery,Paris North Lamar,73.3,174.63,102.06,,,Single-ply,SBD,M,
Boys,74.84,DQ,Cole Seider,Henderson,73.57,188.24,,,,Single-ply,SBD,M,
Boys,74.84,DQ,Josh Mata,Henderson,73.48,181.44,,,,Single-ply,SBD,M,
Boys,74.84,DQ,Miles Miller,Lindale,74.48,167.83,,,,Single-ply,SBD,M,
Boys,82.1,1,Ya'Corus Porter,Henderson,81.47,263.08,147.42,254.01,664.51,Single-ply,SBD,M,
Boys,82.1,2,Kaleb Tate,Henderson,80.1,206.38,136.08,215.46,557.92,Single-ply,SBD,M,
Boys,82.1,3,Keegan Sprouse,Gilmer,78.83,181.44,129.27,217.72,528.44,Single-ply,SBD,M,
Boys,82.1,4,Christian Morales,Mabank,82.1,176.9,154.22,190.51,521.63,Single-ply,SBD,M,
Boys,82.1,5,Josh Rios,Mabank,78.83,190.51,127.01,195.04,512.56,Single-ply,SBD,M,
Boys,82.1,6,Fabian Marquiz,Palestine,81.19,195.04,108.86,197.31,501.22,Single-ply,SBD,M,
Boys,82.1,7,John Kwak,Rusk,81.74,181.44,115.67,181.44,478.54,Single-ply,SBD,M,
Boys,82.1,8,Landon Wilson,Bullard,75.93,190.51,102.06,174.63,467.2,Single-ply,SBD,M,
Boys,82.1,DQ,Collin Crow,Brownsboro,79.74,226.8,136.08,204.12,,Single-ply,SBD,M,
Boys,82.1,DQ,Reggie Ellis,Paris,81.19,,,,,Single-ply,SBD,M,
Boys,82.1,DQ,Brandon Browning,Mabank,77.38,,,,,Single-ply,SBD,M,
Boys,82.1,DQ,Nik Moody,Tyler Chapel Hill,77.93,,,,,Single-ply,SBD,M,
Boys,89.81,1,Jariah Moore,Paris,89.09,229.06,140.61,219.99,589.67,Single-ply,SBD,M,
Boys,89.81,2,Patrick Roland,Paris,88,229.06,129.27,226.8,585.13,Single-ply,SBD,M,
Boys,89.81,3,Daquaveous Mason,Paris North Lamar,84.82,219.99,111.13,226.8,557.92,Single-ply,SBD,M,
Boys,89.81,4,Nick Rodriguez,Tyler Chapel Hill,88.18,188.24,142.88,208.65,539.77,Single-ply,SBD,M,
Boys,89.81,5,Joshua Arredondo,Rusk,86.09,213.19,136.08,183.7,532.97,Single-ply,SBD,M,
Boys,89.81,6,Kolby Smith,Mabank,86.18,188.24,127.01,213.19,528.44,Single-ply,SBD,M,
Boys,89.81,7,Caleb Chase,Mabank,85.46,208.65,136.08,176.9,521.63,Single-ply,SBD,M,
Boys,89.81,8,Dylan Stairs,Mabank,87.82,195.04,131.54,195.04,521.63,Single-ply,SBD,M,
Boys,89.81,9,Cayden Royal,Bullard,87.45,217.72,111.13,190.51,519.36,Single-ply,SBD,M,
Boys,89.81,10,Cameron Hicks,Lindale,88.36,206.38,122.47,188.24,517.1,Single-ply,SBD,M,
Boys,89.81,11,Joe Herrera,Henderson,88.36,163.29,117.93,170.1,451.32,Single-ply,SBD,M,
Boys,89.81,DQ,Hayden Taylor,Wills Point,88.63,,,,,Single-ply,SBD,M,
Boys,99.79,1,Ryan Magrill,Brownsboro,97.16,283.5,183.7,226.8,694,Single-ply,SBD,M,
Boys,99.79,2,Samuel Bowker,Mabank,92.62,238.14,174.63,231.33,644.1,Single-ply,SBD,M,
Boys,99.79,3,Trent Tennon,Paris,98.79,238.14,140.61,260.82,639.57,Single-ply,SBD,M,
Boys,99.79,4,Taydrick Dawson,Paris,93.26,235.87,138.35,215.46,589.67,Single-ply,SBD,M,
Boys,99.79,5,Courtlyn Crabtree,Texarkana Liberty-Eylau,95.25,226.8,147.42,215.46,589.67,Single-ply,SBD,M,
Boys,99.79,6,Drew Ragland,Lindale,92.35,226.8,136.08,213.19,576.06,Single-ply,SBD,M,
Boys,99.79,7,Waihett Emerson,Center,91.72,247.21,129.27,181.44,557.92,Single-ply,SBD,M,
Boys,99.79,8,Brooks Hill,Longview Spring Hill,91.63,215.46,99.79,215.46,530.7,Single-ply,SBD,M,
Boys,99.79,DQ,Vick Braylon,Terrell,96.07,219.99,,,,Single-ply,SBD,M,
Boys,99.79,DQ,Seth Jordan,Gilmer,89.86,217.72,,,,Single-ply,SBD,M,
Boys,99.79,DQ,Kaizen Burrows,Mabank,94.26,,,,,Single-ply,SBD,M,
Boys,109.77,1,Eujayvion McAlister,Henderson,108.95,310.71,197.31,267.62,775.64,Single-ply,SBD,M,
Boys,109.77,2,Austin Taylor,Bullard,107.41,272.16,183.7,226.8,682.66,Single-ply,SBD,M,
Boys,109.77,3,Gabe Hart,Lindale,104.78,226.8,147.42,226.8,601.01,Single-ply,SBD,M,
Boys,109.77,4,Jj Goode,Wills Point,105.6,238.14,147.42,195.04,580.6,Single-ply,SBD,M,
Boys,109.77,5,Dakota Ryder,Wills Point,107.59,226.8,158.76,188.24,573.79,Single-ply,SBD,M,
Boys,109.77,6,Cory Watts,Lindale,100.33,204.12,154.22,197.31,555.65,Single-ply,SBD,M,
Boys,109.77,7,Atticus Finley,Paris North Lamar,107.05,224.53,113.4,206.38,544.31,Single-ply,SBD,M,
Boys,109.77,8,Kanye Federick,Texarkana Liberty-Eylau,103.69,185.97,113.4,215.46,514.83,Single-ply,SBD,M,
Boys,109.77,9,Ethan Heller,Lindale,101.88,192.78,138.35,165.56,496.68,Single-ply,SBD,M,
Boys,109.77,10,Keldrick Henderson,Pittsburg,102.78,204.12,115.67,176.9,496.68,Single-ply,SBD,M,
Boys,109.77,11,Rogers Clark,Texarkana Liberty-Eylau,101.06,188.24,122.47,183.7,494.42,Single-ply,SBD,M,
Boys,109.77,DQ,Bralyn Johnson,Pittsburg,102.87,,,,,Single-ply,SBD,M,
Boys,124.74,1,Raul Carrasco,Mabank,122.47,272.16,183.7,247.21,703.07,Single-ply,SBD,M,
Boys,124.74,2,Eric Lopez,Center,117.03,290.3,172.37,192.78,655.44,Single-ply,SBD,M,
Boys,124.74,3,Casey Poe,Lindale,117.03,229.06,145.15,249.48,623.69,Single-ply,SBD,M,
Boys,124.74,4,Landon Daffan,Bullard,110.59,260.82,149.69,199.58,610.08,Single-ply,SBD,M,
Boys,124.74,5,Pablo Cerda,Tyler Chapel Hill,111.31,235.87,154.22,215.46,605.55,Single-ply,SBD,M,
Boys,124.74,6,Salvador Gomez,Paris,124.19,260.82,127.01,208.65,596.47,Single-ply,SBD,M,
Boys,124.74,7,Ariel Briceno,Pittsburg,116.57,263.08,124.74,199.58,587.4,Single-ply,SBD,M,
Boys,124.74,8,Branden Mathews,Kaufman,119.48,229.06,147.42,206.38,582.87,Single-ply,SBD,M,
Boys,124.74,9,Reggie Johnson,Van,112.22,222.26,115.67,226.8,564.72,Single-ply,SBD,M,
Boys,124.74,10,Austin Ellis,Bullard,119.84,233.6,124.74,197.31,555.65,Single-ply,SBD,M,
Boys,124.74,DQ,Trey Mazratian,Lindale,114.49,,,,,Single-ply,SBD,M,
Boys,124.74,DQ,Michael Kennedy,Terrell,110.22,,,,,Single-ply,SBD,M,
Boys,139.71,1,Devin Fields,Henderson,129.18,290.3,192.78,285.76,768.84,Single-ply,SBD,M,
Boys,139.71,2,Jamaryian Black,Palestine,135.62,272.16,167.83,249.48,689.46,Single-ply,SBD,M,
Boys,139.71,3,Derek Degrate,Bullard,127.91,254.01,174.63,226.8,655.44,Single-ply,SBD,M,
Boys,139.71,4,Brock Johnson,Henderson,127.1,249.48,149.69,238.14,637.3,Single-ply,SBD,M,
Boys,139.71,5,Rogelio Luna,Carthage,138.07,226.8,147.42,226.8,601.01,Single-ply,SBD,M,
Boys,139.71,6,Joe Richard,Lindale,131.54,233.6,133.81,226.8,594.21,Single-ply,SBD,M,
Boys,139.71,7,Jorge Garcia,Kaufman,127.64,208.65,147.42,226.8,582.87,Single-ply,SBD,M,
Boys,139.71,8,Jose Suarez,Van,130.91,240.4,113.4,213.19,566.99,Single-ply,SBD,M,
Boys,139.71,9,Brandon Pettway,Lindale,134.9,215.46,124.74,217.72,557.92,Single-ply,SBD,M,
Boys,139.71,10,Kylon Holmes,Terrell,131.45,183.7,142.88,219.99,546.58,Single-ply,SBD,M,
Boys,139.71,11,Keldrick Davis,Tyler Chapel Hill,129,199.58,127.01,208.65,535.24,Single-ply,SBD,M,
Boys,139.71,12,Trae Derrick,Van,128.19,226.8,120.2,163.29,510.29,Single-ply,SBD,M,
Boys,139.71,13,Osvaldo Diaz,Center,133.08,222.26,113.4,163.29,498.95,Single-ply,SBD,M,
Boys,139.71+,1,Satchel Swain,Paris,141.52,317.51,174.63,247.21,739.36,Single-ply,SBD,M,
Boys,139.71+,2,Jason Murphy,Texarkana Liberty-Eylau,163.47,285.76,165.56,263.08,714.41,Single-ply,SBD,M,
Boys,139.71+,3,Kris Mayes,Wills Point,177.54,317.51,151.95,197.31,666.78,Single-ply,SBD,M,
Boys,139.71+,4,Kameron Henry,Center,184.79,208.65,163.29,231.33,603.28,Single-ply,SBD,M,
Boys,139.71+,5,John Bateman,Henderson,169.55,215.46,142.88,226.8,585.13,Single-ply,SBD,M,
Boys,139.71+,6,Branson Rhone,Brownsboro,140.34,195.04,136.08,201.85,532.97,Single-ply,SBD,M,
Boys,139.71+,7,Braden Brawner,Rusk,148.78,226.8,127.01,165.56,519.36,Single-ply,SBD,M,
Boys,139.71+,8,Gabriel Barnes,Carthage,160.84,195.04,108.86,163.29,467.2,Single-ply,SBD,M,
Boys,139.71+,9,Devon Weary,Texarkana Liberty-Eylau,139.8,163.29,99.79,167.83,430.91,Single-ply,SBD,M,
Boys,139.71+,DQ,Jalan Lofters,Tyler Chapel Hill,192.6,,,,,Single-ply,SBD,M,
Boys,139.71+,DQ,Josh Nwanka,Terrell,153.86,174.63,,,,Single-ply,SBD,M,
