Division,WeightClassKg,Place,Name,Team,BodyweightKg,Best3SquatKg,Best3BenchKg,Best3DeadliftKg,TotalKg,Equipment,Event,Sex,BirthDate
Boys,55.79,1,Austin Maldonado,Falfurrias,52.34,131.54,79.38,158.76,369.68,Single-ply,SBD,M,
Boys,55.79,2,John Ryan Dimicali,Bishop,55.79,124.74,83.91,151.95,360.61,Single-ply,SBD,M,
Boys,59.87,1,Nick Garza,Taft,59.78,149.69,86.18,158.76,394.63,Single-ply,SBD,M,
Boys,59.87,2,Andrew Gonzalez,Kingsville King,59.87,138.35,95.25,147.42,381.02,Single-ply,SBD,M,
Boys,59.87,3,Teo Pelagio,Bishop,59.87,129.27,83.91,133.81,347,Single-ply,SBD,M,
Boys,67.13,1,Andy Rico,Port Lavaca Calhoun,63.05,149.69,111.13,165.56,426.38,Single-ply,SBD,M,
Boys,67.13,2,Derec Chavez,Port Lavaca Calhoun,66.95,142.88,77.11,188.24,408.23,Single-ply,SBD,M,
Boys,67.13,3,Chris Cantu,Taft,67.13,156.49,97.52,147.42,401.43,Single-ply,SBD,M,
Boys,67.13,4,Francisco Torres,Taft,66.68,147.42,77.11,172.37,396.89,Single-ply,SBD,M,
Boys,67.13,5,Jaime Ruelas,Falfurrias,65.05,151.95,88.45,149.69,390.09,Single-ply,SBD,M,
Boys,67.13,6,Landen Longoria,Sinton,64.41,142.88,77.11,149.69,369.68,Single-ply,SBD,M,
Boys,67.13,7,Carson Guidry,Taft,62.23,124.74,77.11,142.88,344.73,Single-ply,SBD,M,
Boys,67.13,8,Royce Hernandez,Sinton,61.33,136.08,61.23,136.08,333.39,Single-ply,SBD,M,
Boys,67.13,DQ,Jerek Sanchez,Sinton,67.13,,,,,Single-ply,SBD,M,
Boys,67.13,DQ,Angel Guerrero,Port Lavaca Calhoun,63.96,,,,,Single-ply,SBD,M,
Boys,67.13,DQ,David Salazar,Falfurrias,61.23,120.2,92.99,,,Single-ply,SBD,M,
Boys,74.84,1,Alfredo Gomez,Taft,74.75,156.49,111.13,183.7,451.32,Single-ply,SBD,M,
Boys,74.84,2,Ben Deleon,Santa Gertrudis Academy,74.66,183.7,92.99,154.22,430.91,Single-ply,SBD,M,
Boys,74.84,DQ,Marcus Lopez,Falfurrias,74.84,,,,,Single-ply,SBD,M,
Boys,82.1,1,Jesse Alaniz,Kingsville King,80.29,242.67,149.69,226.8,619.15,Single-ply,SBD,M,
Boys,82.1,2,Jose Reynaga,Port Lavaca Calhoun,79.92,226.8,145.15,210.92,582.87,Single-ply,SBD,M,
Boys,82.1,3,Jayden Howard,Sinton,75.21,195.04,129.27,226.8,551.11,Single-ply,SBD,M,
Boys,82.1,4,Eh Ler Moo,Port Lavaca Calhoun,77.29,190.51,104.33,181.44,476.27,Single-ply,SBD,M,
Boys,82.1,5,Jason Martinez,Taft,76.75,181.44,83.91,192.78,458.13,Single-ply,SBD,M,
Boys,82.1,6,Chayse Mrazek,Bishop,81.37,170.1,81.65,167.83,419.57,Single-ply,SBD,M,
Boys,82.1,7,Ryan McCraw,Bishop,80.74,108.86,72.57,136.08,317.51,Single-ply,SBD,M,
Boys,82.1,DQ,Marcello Nieto,Taft,79.65,188.24,97.52,,,Single-ply,SBD,M,
Boys,82.1,DQ,Joseph Chavez,Taft,82.1,,,,,Single-ply,SBD,M,
Boys,89.81,1,Pavan Patel,Port Lavaca Calhoun,89.09,238.14,129.27,244.94,612.35,Single-ply,SBD,M,
Boys,89.81,2,David Perez,Port Lavaca Calhoun,88.18,226.8,117.93,226.8,571.53,Single-ply,SBD,M,
Boys,89.81,3,Jayden Silguero,Kingsville King,84.46,181.44,117.93,174.63,474,Single-ply,SBD,M,
Boys,89.81,4,Zack Santellana,Sinton,87.36,183.7,108.86,165.56,458.13,Single-ply,SBD,M,
Boys,89.81,5,James Lobao,Sinton,83.19,165.56,92.99,165.56,424.11,Single-ply,SBD,M,
Boys,89.81,DQ,Kevin Guajardo,Bishop,88.09,,,,,Single-ply,SBD,M,
Boys,89.81,DQ,Anthony Rivas,Sinton,89.09,147.42,92.99,,,Single-ply,SBD,M,
Boys,99.79,1,Xavier Smith,Port Lavaca Calhoun,90.45,233.6,147.42,249.48,630.49,Single-ply,SBD,M,
Boys,99.79,2,Justin Navarro,Falfurrias,90.99,204.12,102.06,199.58,505.76,Single-ply,SBD,M,
Boys,99.79,3,Jose Silguero,Kingsville King,94.8,149.69,90.72,158.76,399.16,Single-ply,SBD,M,
Boys,99.79,4,Vicente Perez,Taft,96.52,142.88,70.31,129.27,342.46,Single-ply,SBD,M,
Boys,99.79,DQ,Cooper Dockens,Sinton,99.79,,,,,Single-ply,SBD,M,
Boys,109.77,1,James Garza,Falfurrias,106.5,217.72,136.08,226.8,580.6,Single-ply,SBD,M,
Boys,109.77,2,Michael Longoria,Falfurrias,106.96,170.1,102.06,195.04,467.2,Single-ply,SBD,M,
Boys,109.77,3,Thomas Vela,Falfurrias,106.5,147.42,79.38,151.95,378.75,Single-ply,SBD,M,
Boys,109.77,DQ,Anastacio Lopez,Taft,103.42,208.65,,,,Single-ply,SBD,M,
Boys,109.77,DQ,Gabriel Garza,Kingsville King,101.88,185.97,,,,Single-ply,SBD,M,
Boys,124.74,1,Gage Spencer,Port Lavaca Calhoun,119.2,290.3,154.22,258.55,703.07,Single-ply,SBD,M,
Boys,124.74,2,Tiger Perez,Kingsville King,123.92,224.53,149.69,219.99,594.21,Single-ply,SBD,M,
Boys,124.74,3,Christian Rodriguez,Port Lavaca Calhoun,122.02,274.42,158.76,201.85,635.03,Single-ply,SBD,M,
Boys,124.74,4,Aaron Molina,Falfurrias,111.13,197.31,165.56,195.04,557.92,Single-ply,SBD,M,
Boys,124.74,5,Gavin Chavez,Port Lavaca Calhoun,117.12,192.78,102.06,165.56,460.4,Single-ply,SBD,M,
Boys,124.74,DQ,Carlos Castillo,Sinton,124.74,,,,,Single-ply,SBD,M,
Boys,124.74,DQ,Jordan De La Rosa,Santa Gertrudis Academy,111.67,213.19,117.93,,,Single-ply,SBD,M,
Boys,139.71,1,Vinson Samudio,Port Lavaca Calhoun,134.26,290.3,142.88,188.24,621.42,Single-ply,SBD,M,
Boys,139.71,2,Samuel Morales,Sinton,131.72,249.48,117.93,204.12,571.53,Single-ply,SBD,M,
Boys,139.71,3,Brandon Montez,Taft,127.82,183.7,124.74,197.31,505.76,Single-ply,SBD,M,
Boys,139.71,DQ,Nate Martinez,Sinton,139.71,,,,,Single-ply,SBD,M,
Boys,139.71,DQ,Elijah Brown,Sinton,139.71,,,,,Single-ply,SBD,M,
Boys,139.71,DQ,Jacob Gomez,Taft,139.71,,,,,Single-ply,SBD,M,
Boys,139.71+,1,Artemio Herrera,Port Lavaca Calhoun,147.05,235.87,140.61,197.31,573.79,Single-ply,SBD,M,
Boys,139.71+,2,Tomas Amaya,Kingsville King,209.56,190.51,117.93,149.69,458.13,Single-ply,SBD,M,
Boys,139.71+,DQ,Joseph Gonzalez,Falfurrias,140.61,,,,,Single-ply,SBD,M,
